{
    "KPlugin": {
        "Description": "Platform plugin for standalone x11 in kwin_x11.",
        "Description[ar]": "ملحقة النظام لأكس ١١ المفرد في kwin_x11.",
        "Description[az]": "Kwin_x11 -də müstəqil X11 üçün platforma əlavəsi.",
        "Description[ca@valencia]": "Connector de plataforma per a una X11 autònoma en el kwin_x11.",
        "Description[ca]": "Connector de plataforma per a una X11 autònoma en el kwin_x11.",
        "Description[da]": "Platform-plugin til standalone x11 i kwin_x11.",
        "Description[de]": "Plattform-Modul für ein selbstständiges X11 in kwin_x11.",
        "Description[el]": "Πρόσθετο πλατφόρμας για αυτόνομο x11 και kwin_x11.",
        "Description[en_GB]": "Platform plugin for standalone x11 in kwin_x11.",
        "Description[es]": "Complemento de Platform para X11 autónomo en kwin_x11.",
        "Description[et]": "Autonoomse x11 platvormi plugin kwin_x11-s",
        "Description[eu]": "Plataformaren plugina x11 autonomoarentzako, kwin_x11 barruan.",
        "Description[fi]": "Alustaliitännäinen itsenäiselle x11:lle kwin_x11:ssä.",
        "Description[fr]": "Module de plate-forme pour x11 autonomes, au sein de kwin_x11",
        "Description[gl]": "Complemento de plataforma para x11 independente en kwin_x11.",
        "Description[hu]": "Platformbővítmény önálló x11-hez a kwin_x11-ben.",
        "Description[ia]": "Plugin de platteforma per singule X11 in kwin_x11.",
        "Description[id]": "Plugin platform untuk standalone x11 dalam kwin_x11.",
        "Description[it]": "Estensione di piattaforma per x11 autonomo in kwin_x11.",
        "Description[ko]": "kwin_x11의 단독 X11 플러그인입니다.",
        "Description[lt]": "Platformos priedas, skirtas kwin_x11 viduje esančiam, atskiram x11.",
        "Description[nl]": "Platform plug-in voor alleenstaande x11 in kwin_x11.",
        "Description[nn]": "Plattformtillegg for frittståande X11 i kwin_x11.",
        "Description[pl]": "Wtyczka platformy dla wolnostojącego x11 w kwin_x11.",
        "Description[pt]": "'Plugin' de plataformas para um X11 autónomo no X11 do KWin.",
        "Description[pt_BR]": "Plugin de plataforma para um x11 independente no kwin_x11.",
        "Description[ro]": "Extensie de platformă pentru x11 de sine stătător în kwin_x11.",
        "Description[ru]": "Подключаемый модуль выделенного х11 в kwin_x11.",
        "Description[sk]": "Platformový plugin pre standalone x11 v kwin_x11.",
        "Description[sl]": "Okoljski vstavek za samostojni x11 v kwin_x11.",
        "Description[sr@ijekavian]": "Платформски прикључак за самостални Икс11 у К‑вину.",
        "Description[sr@ijekavianlatin]": "Platformski priključak za samostalni X11 u KWinu.",
        "Description[sr@latin]": "Platformski priključak za samostalni X11 u KWinu.",
        "Description[sr]": "Платформски прикључак за самостални Икс11 у К‑вину.",
        "Description[sv]": "Plattforminsticksprogram för fristående X11 i kwin_x11",
        "Description[tr]": "Kwin_x11'de bağımsız x11 için platform eklentisi.",
        "Description[uk]": "Додаток платформи для окремого x11 у kwin_x11.",
        "Description[vi]": "Phần cài cắm nền tảng cho x11 độc lập trong kwin_x11.",
        "Description[x-test]": "xxPlatform plugin for standalone x11 in kwin_x11.xx",
        "Description[zh_CN]": "kwin_x11 中的独立 x11 的平台插件",
        "Description[zh_TW]": "在 kwin_x11 中供 standalone 的 x11 使用的平臺外掛程式。",
        "Id": "KWinX11Platform",
        "Name": "x11-standalone",
        "Name[ar]": "اكس ١١ مفرد",
        "Name[az]": "x11-standalone",
        "Name[ca@valencia]": "X11-autònoma",
        "Name[ca]": "X11-autònoma",
        "Name[da]": "x11-standalone",
        "Name[de]": "Selbständiges-x11",
        "Name[el]": "x11-αυτόνομος",
        "Name[en_GB]": "x11-standalone",
        "Name[es]": "x11-autónomo",
        "Name[et]": "x11-standalone",
        "Name[eu]": "x11-autonomoa",
        "Name[fi]": "x11-standalone",
        "Name[fr]": "x11-standalone",
        "Name[gl]": "x11-independente",
        "Name[hu]": "x11-standalone",
        "Name[ia]": "x11-standalone",
        "Name[id]": "x11-standalone",
        "Name[it]": "X11-alone",
        "Name[ko]": "x11-standalone",
        "Name[lt]": "x11-atskiras",
        "Name[nl]": "x11-alleenstaand",
        "Name[nn]": "X11 frittståande",
        "Name[pa]": "x11-ਸਟੈਡਅਲੋਨ",
        "Name[pl]": "x11-wolnostojący",
        "Name[pt]": "x11-autónomo",
        "Name[pt_BR]": "x11-standalone",
        "Name[ro]": "x11-standalone",
        "Name[ru]": "x11-standalone",
        "Name[sk]": "x11-standalone",
        "Name[sl]": "x11-samostojno",
        "Name[sr@ijekavian]": "Икс11 самостални",
        "Name[sr@ijekavianlatin]": "X11 samostalni",
        "Name[sr@latin]": "X11 samostalni",
        "Name[sr]": "Икс11 самостални",
        "Name[sv]": "Fristående X11",
        "Name[tr]": "x11-standalone",
        "Name[uk]": "x11-окремий",
        "Name[vi]": "x11-độc-lập",
        "Name[x-test]": "xxx11-standalonexx",
        "Name[zh_CN]": "x11-standalone",
        "Name[zh_TW]": "x11-standalone"
    }
}
