{
    "KPackageStructure": "KWin/WindowSwitcher",
    "KPlugin": {
        "Authors": [
            {
                "Email": "notmart@gmail.com",
                "Name": "Marco Martin",
                "Name[ar]": "Marco Martin",
                "Name[az]": "Marco Martin",
                "Name[ca@valencia]": "Marco Martin",
                "Name[ca]": "Marco Martin",
                "Name[cs]": "Marco Martin",
                "Name[de]": "Marco Martin",
                "Name[en_GB]": "Marco Martin",
                "Name[es]": "Marco Martin",
                "Name[eu]": "Marco Martin",
                "Name[fi]": "Marco Martin",
                "Name[fr]": "Marco Martin",
                "Name[hu]": "Marco Martin",
                "Name[ia]": "Marco Martin",
                "Name[id]": "Marco Martin",
                "Name[it]": "Marco Martin",
                "Name[ko]": "Marco Martin",
                "Name[lt]": "Marco Martin",
                "Name[nl]": "Marco Martin",
                "Name[nn]": "Marco Martin",
                "Name[pl]": "Marco Martin",
                "Name[pt]": "Marco Martin",
                "Name[pt_BR]": "Marco Martin",
                "Name[ro]": "Marco Martin",
                "Name[ru]": "Marco Martin",
                "Name[sk]": "Marco Martin",
                "Name[sl]": "Marco Martin",
                "Name[sv]": "Marco Martin",
                "Name[ta]": "மார்கோ மார்ட்டின்",
                "Name[tr]": "Marco Martin",
                "Name[uk]": "Marco Martin",
                "Name[vi]": "Marco Martin",
                "Name[x-test]": "xxMarco Martinxx",
                "Name[zh_CN]": "Marco Martin"
            }
        ],
        "Name": "KWin Window Switcher",
        "Name[ar]": "مبدل نوافذ كوين",
        "Name[az]": "KWin pəncərə dəyişdiricisi",
        "Name[ca@valencia]": "Commutador de finestres de KWin",
        "Name[ca]": "Commutador de finestres del KWin",
        "Name[cs]": "Přepínač oken KWin",
        "Name[de]": "KWin-Fensterwechsler",
        "Name[en_GB]": "KWin Window Switcher",
        "Name[es]": "Selector de ventanas de KWin",
        "Name[eu]": "KWin leiho-aldatzailea",
        "Name[fi]": "KWin-ikkunavaihto",
        "Name[fr]": "Sélecteur de fenêtres de KWin",
        "Name[hu]": "KWin ablakváltó",
        "Name[ia]": "Commutator de fenestra de KWin",
        "Name[it]": "Selettore delle finestre KWin",
        "Name[ko]": "KWin 창 전환기",
        "Name[lt]": "KWin langų perjungiklis",
        "Name[nl]": "KWin-vensterwisselaar",
        "Name[nn]": "KWin-vindaugsbytar",
        "Name[pl]": "Przełącznik okien KWin",
        "Name[pt]": "Selector de Janelas do KWin",
        "Name[pt_BR]": "Seletor de janelas do KWin",
        "Name[ro]": "Comutator de ferestre KWin",
        "Name[ru]": "Переключатель окон для KWin",
        "Name[sk]": "KWin Prepínač okien",
        "Name[sl]": "KWin Window Switcher",
        "Name[sv]": "Kwin-fönsterbyte",
        "Name[ta]": "கேவின்னின் சாளர மாற்றி",
        "Name[tr]": "KWin Pencere Değiştirici",
        "Name[uk]": "Перемикач вікон KWin",
        "Name[vi]": "Trình chuyển cửa sổ KWin",
        "Name[x-test]": "xxKWin Window Switcherxx",
        "Name[zh_CN]": "KWin 窗口切换器",
        "Version": "1"
    }
}
